%YAML 1.1
%TAG !u! tag:unity3d.com,2011:
--- !u!1001 &590955354599337237
PrefabInstance:
  m_ObjectHideFlags: 0
  serializedVersion: 2
  m_Modification:
    m_TransformParent: {fileID: 0}
    m_Modifications:
    - target: {fileID: 5557877253713390864, guid: 66a5654873e52db498997b70cffe5d50,
        type: 3}
      propertyPath: m_LocalPosition.x
      value: 0
      objectReference: {fileID: 0}
    - target: {fileID: 5557877253713390864, guid: 66a5654873e52db498997b70cffe5d50,
        type: 3}
      propertyPath: m_LocalPosition.y
      value: 0
      objectReference: {fileID: 0}
    - target: {fileID: 5557877253713390864, guid: 66a5654873e52db498997b70cffe5d50,
        type: 3}
      propertyPath: m_LocalPosition.z
      value: 0
      objectReference: {fileID: 0}
    - target: {fileID: 5557877253713390864, guid: 66a5654873e52db498997b70cffe5d50,
        type: 3}
      propertyPath: m_LocalRotation.x
      value: -0
      objectReference: {fileID: 0}
    - target: {fileID: 5557877253713390864, guid: 66a5654873e52db498997b70cffe5d50,
        type: 3}
      propertyPath: m_LocalRotation.y
      value: -0
      objectReference: {fileID: 0}
    - target: {fileID: 5557877253713390864, guid: 66a5654873e52db498997b70cffe5d50,
        type: 3}
      propertyPath: m_LocalRotation.z
      value: -0
      objectReference: {fileID: 0}
    - target: {fileID: 5557877253713390864, guid: 66a5654873e52db498997b70cffe5d50,
        type: 3}
      propertyPath: m_LocalRotation.w
      value: 1
      objectReference: {fileID: 0}
    - target: {fileID: 5557877253713390864, guid: 66a5654873e52db498997b70cffe5d50,
        type: 3}
      propertyPath: m_RootOrder
      value: 0
      objectReference: {fileID: 0}
    - target: {fileID: 5557877253713390864, guid: 66a5654873e52db498997b70cffe5d50,
        type: 3}
      propertyPath: m_LocalEulerAnglesHint.x
      value: 0
      objectReference: {fileID: 0}
    - target: {fileID: 5557877253713390864, guid: 66a5654873e52db498997b70cffe5d50,
        type: 3}
      propertyPath: m_LocalEulerAnglesHint.y
      value: 0
      objectReference: {fileID: 0}
    - target: {fileID: 5557877253713390864, guid: 66a5654873e52db498997b70cffe5d50,
        type: 3}
      propertyPath: m_LocalEulerAnglesHint.z
      value: 0
      objectReference: {fileID: 0}
    - target: {fileID: 5557877253713390865, guid: 66a5654873e52db498997b70cffe5d50,
        type: 3}
      propertyPath: m_Name
      value: CataractButton
      objectReference: {fileID: 0}
    - target: {fileID: 5557877253713390871, guid: 66a5654873e52db498997b70cffe5d50,
        type: 3}
      propertyPath: afflictionType
      value: 1
      objectReference: {fileID: 0}
    - target: {fileID: 5557877253799573687, guid: 66a5654873e52db498997b70cffe5d50,
        type: 3}
      propertyPath: m_text
      value: Cataract
      objectReference: {fileID: 0}
    m_RemovedComponents: []
  m_SourcePrefab: {fileID: 100100000, guid: 66a5654873e52db498997b70cffe5d50, type: 3}
