%YAML 1.1
%TAG !u! tag:unity3d.com,2011:
--- !u!114 &11400000
MonoBehaviour:
  m_ObjectHideFlags: 0
  m_CorrespondingSourceObject: {fileID: 0}
  m_PrefabInstance: {fileID: 0}
  m_PrefabAsset: {fileID: 0}
  m_GameObject: {fileID: 0}
  m_Enabled: 1
  m_EditorHideFlags: 0
  m_Script: {fileID: 11500000, guid: eb83d2244ab6400dbe10d333b4e5781b, type: 3}
  m_Name: MinigameLeft
  m_EditorClassIdentifier: 
  detectBothHands: 0
  jsonSet:
    handedness: 1
    thumbJson: '{"stagesInternal":{"33":{"Position":{"x":-0.236152023,"y":1.053714,"z":0.20712769},"Rotation":{"x":0.6222399,"y":-0.297355056,"z":-0.351619,"w":-0.6330574},"Forward":{"x":-0.0610970855,"y":0.9969385,"z":0.048795},"Up":{"x":-0.8152424,"y":-0.021636799,"z":-0.578715742},"Right":{"x":0.5758881,"y":0.0751376748,"z":-0.8140684},"position":{"x":-0.236152023,"y":1.053714,"z":0.20712769},"rotation":{"x":0.6222399,"y":-0.297355056,"z":-0.351619,"w":-0.6330574}},"38":{"Position":{"x":-0.237912029,"y":1.08243251,"z":0.208533317},"Rotation":{"x":0.40635857,"y":-0.392578661,"z":-0.348682582,"w":-0.747780442},"Forward":{"x":0.303745,"y":0.881504655,"z":0.3615094},"Up":{"x":-0.840531468,"y":0.42658633,"z":-0.333963275},"Right":{"x":0.4486049,"y":0.202420622,"z":-0.8705056},"position":{"x":-0.237912029,"y":1.08243251,"z":0.208533317},"rotation":{"x":0.40635857,"y":-0.392578661,"z":-0.348682582,"w":-0.747780442}},"40":{"Position":{"x":-0.228817612,"y":1.10882556,"z":0.219357252},"Rotation":{"x":0.318767458,"y":-0.446898133,"z":-0.1996842,"w":-0.811662555},"Forward":{"x":0.59815526,"y":0.6959402,"z":0.397338748},"Up":{"x":-0.609065533,"y":0.717027068,"z":-0.338986218},"Right":{"x":0.520816565,"y":0.0392392278,"z":-0.852766633},"position":{"x":-0.228817612,"y":1.10882556,"z":0.219357252},"rotation":{"x":0.318767458,"y":-0.446898133,"z":-0.1996842,"w":-0.811662555}},"48":{"Position":{"x":-0.216648787,"y":1.12461758,"z":0.228212386},"Rotation":{"x":0.318767458,"y":-0.446898133,"z":-0.1996842,"w":-0.811662555},"Forward":{"x":0.59815526,"y":0.6959402,"z":0.397338748},"Up":{"x":-0.609065533,"y":0.717027068,"z":-0.338986218},"Right":{"x":0.520816565,"y":0.0392392278,"z":-0.852766633},"position":{"x":-0.216648787,"y":1.12461758,"z":0.228212386},"rotation":{"x":0.318767458,"y":-0.446898133,"z":-0.1996842,"w":-0.811662555}}},"f":32}'
    indexJson: '{"stagesInternal":{"65":{"Position":{"x":0.0,"y":0.0,"z":0.0},"Rotation":{"x":0.0,"y":0.0,"z":0.0,"w":0.0},"Forward":{"x":0.0,"y":0.0,"z":1.0},"Up":{"x":0.0,"y":1.0,"z":0.0},"Right":{"x":1.0,"y":0.0,"z":0.0},"position":{"x":0.0,"y":0.0,"z":0.0},"rotation":{"x":0.0,"y":0.0,"z":0.0,"w":0.0}},"66":{"Position":{"x":-0.239311263,"y":1.0845294,"z":0.2513204},"Rotation":{"x":-0.0413232967,"y":-0.72794956,"z":-0.5876688,"w":-0.3507524},"Forward":{"x":0.559228957,"y":0.826598,"z":-0.0632363558},"Up":{"x":-0.352089942,"y":0.3058756,"z":0.88457495},"Right":{"x":-0.7505303,"y":0.47241503,"z":-0.4620913},"position":{"x":-0.239311263,"y":1.0845294,"z":0.2513204},"rotation":{"x":-0.0413232967,"y":-0.72794956,"z":-0.5876688,"w":-0.3507524}},"68":{"Position":{"x":-0.220519,"y":1.11230624,"z":0.2491954},"Rotation":{"x":-0.312546939,"y":-0.907608449,"z":0.237682387,"w":-0.148554653},"Forward":{"x":0.121085122,"y":-0.5243057,"z":-0.8428774},"Up":{"x":0.637958169,"y":0.691643,"z":-0.338584483},"Right":{"x":-0.7604921,"y":0.496722847,"z":-0.418232739},"position":{"x":-0.220519,"y":1.11230624,"z":0.2491954},"rotation":{"x":-0.312546939,"y":-0.907608449,"z":0.237682387,"w":-0.148554653}},"72":{"Position":{"x":-0.217911646,"y":1.10101628,"z":0.231045544},"Rotation":{"x":-0.356957436,"y":-0.6697469,"z":0.651150346,"w":0.004886716},"Forward":{"x":-0.471411645,"y":-0.8687231,"z":-0.151958942},"Up":{"x":0.471778274,"y":-0.102830768,"z":-0.875700533},"Right":{"x":-0.7451153,"y":0.484506249,"z":-0.4583202},"position":{"x":-0.217911646,"y":1.10101628,"z":0.231045544},"rotation":{"x":-0.356957436,"y":-0.6697469,"z":0.651150346,"w":0.004886716}},"80":{"Position":{"x":-0.226628631,"y":1.083583,"z":0.22735931},"Rotation":{"x":-0.356957436,"y":-0.6697469,"z":0.651150346,"w":0.004886716},"Forward":{"x":-0.471411645,"y":-0.8687231,"z":-0.151958942},"Up":{"x":0.471778274,"y":-0.102830768,"z":-0.875700533},"Right":{"x":-0.7451153,"y":0.484506249,"z":-0.4583202},"position":{"x":-0.226628631,"y":1.083583,"z":0.22735931},"rotation":{"x":-0.356957436,"y":-0.6697469,"z":0.651150346,"w":0.004886716}}},"f":64}'
    middleJson: '{"stagesInternal":{"97":{"Position":{"x":0.0,"y":0.0,"z":0.0},"Rotation":{"x":0.0,"y":0.0,"z":0.0,"w":0.0},"Forward":{"x":0.0,"y":0.0,"z":1.0},"Up":{"x":0.0,"y":1.0,"z":0.0},"Right":{"x":1.0,"y":0.0,"z":0.0},"position":{"x":0.0,"y":0.0,"z":0.0},"rotation":{"x":0.0,"y":0.0,"z":0.0,"w":0.0}},"98":{"Position":{"x":-0.2262895,"y":1.07380509,"z":0.261680067},"Rotation":{"x":-0.132770389,"y":-0.781375647,"z":-0.535880148,"w":-0.290958345},"Forward":{"x":0.596993566,"y":0.7601861,"z":-0.256351769},"Up":{"x":-0.104350522,"y":0.390409,"z":0.914708734},"Right":{"x":-0.795430839,"y":0.5193247,"z":-0.31239748},"position":{"x":-0.2262895,"y":1.07380509,"z":0.261680067},"rotation":{"x":-0.132770389,"y":-0.781375647,"z":-0.535880148,"w":-0.290958345}},"100":{"Position":{"x":-0.203583643,"y":1.10271776,"z":0.2519301},"Rotation":{"x":-0.3188725,"y":-0.8945523,"z":0.308568925,"w":-0.0536825657},"Forward":{"x":-0.100744575,"y":-0.58629787,"z":-0.803807},"Up":{"x":0.6036258,"y":0.606211066,"z":-0.5178263},"Right":{"x":-0.7908772,"y":0.537366748,"z":-0.292832017},"position":{"x":-0.203583643,"y":1.10271776,"z":0.2519301},"rotation":{"x":-0.3188725,"y":-0.8945523,"z":0.308568925,"w":-0.0536825657}},"104":{"Position":{"x":-0.206042737,"y":1.0884068,"z":0.232309848},"Rotation":{"x":-0.386736453,"y":-0.607732832,"z":0.686691,"w":0.09773209},"Forward":{"x":-0.6499269,"y":-0.7590562,"z":-0.0378085673},"Up":{"x":0.3358414,"y":-0.24221918,"z":-0.910242438},"Right":{"x":-0.6817674,"y":0.60428834,"z":-0.41234687},"position":{"x":-0.206042737,"y":1.0884068,"z":0.232309848},"rotation":{"x":-0.386736453,"y":-0.607732832,"z":0.686691,"w":0.09773209}},"112":{"Position":{"x":-0.2198937,"y":1.07120776,"z":0.230669126},"Rotation":{"x":-0.386736453,"y":-0.607732832,"z":0.686691,"w":0.09773209},"Forward":{"x":-0.6499269,"y":-0.7590562,"z":-0.0378085673},"Up":{"x":0.3358414,"y":-0.24221918,"z":-0.910242438},"Right":{"x":-0.6817674,"y":0.60428834,"z":-0.41234687},"position":{"x":-0.2198937,"y":1.07120776,"z":0.230669126},"rotation":{"x":-0.386736453,"y":-0.607732832,"z":0.686691,"w":0.09773209}}},"f":96}'
    ringJson: '{"stagesInternal":{"129":{"Position":{"x":0.0,"y":0.0,"z":0.0},"Rotation":{"x":0.0,"y":0.0,"z":0.0,"w":0.0},"Forward":{"x":0.0,"y":0.0,"z":1.0},"Up":{"x":0.0,"y":1.0,"z":0.0},"Right":{"x":1.0,"y":0.0,"z":0.0},"position":{"x":0.0,"y":0.0,"z":0.0},"rotation":{"x":0.0,"y":0.0,"z":0.0,"w":0.0}},"130":{"Position":{"x":-0.2107215,"y":1.06397474,"z":0.262415677},"Rotation":{"x":-0.180431485,"y":-0.81296587,"z":-0.5017028,"w":-0.234147951},"Forward":{"x":0.5617545,"y":0.7312392,"z":-0.3869381},"Up":{"x":0.0584239364,"y":0.4314776,"z":0.9002298},"Right":{"x":-0.8252384,"y":0.52831465,"z":-0.199662611},"position":{"x":-0.2107215,"y":1.06397474,"z":0.262415677},"rotation":{"x":-0.180431485,"y":-0.81296587,"z":-0.5017028,"w":-0.234147951}},"132":{"Position":{"x":-0.191312388,"y":1.0892396,"z":0.249046639},"Rotation":{"x":-0.315003276,"y":-0.8807847,"z":0.3500434,"w":0.0496096648},"Forward":{"x":-0.307920516,"y":-0.5853713,"z":-0.7500175},"Up":{"x":0.520169,"y":0.5564851,"z":-0.647880137},"Right":{"x":-0.7966241,"y":0.5896312,"z":-0.133138761},"position":{"x":-0.191312388,"y":1.0892396,"z":0.249046639},"rotation":{"x":-0.315003276,"y":-0.8807847,"z":0.3500434,"w":0.0496096648}},"136":{"Position":{"x":-0.198562145,"y":1.07545757,"z":0.231388062},"Rotation":{"x":-0.2906491,"y":-0.61794,"z":0.7019328,"w":0.202395678},"Forward":{"x":-0.658169031,"y":-0.7498525,"z":0.06734651},"Up":{"x":0.07507107,"y":-0.15437305,"z":-0.985156953},"Right":{"x":-0.749119,"y":0.6433437,"z":-0.157895476},"position":{"x":-0.198562145,"y":1.07545757,"z":0.231388062},"rotation":{"x":-0.2906491,"y":-0.61794,"z":0.7019328,"w":0.202395678}},"144":{"Position":{"x":-0.212469608,"y":1.05892885,"z":0.231471986},"Rotation":{"x":-0.2906491,"y":-0.61794,"z":0.7019328,"w":0.202395678},"Forward":{"x":-0.658169031,"y":-0.7498525,"z":0.06734651},"Up":{"x":0.07507107,"y":-0.15437305,"z":-0.985156953},"Right":{"x":-0.749119,"y":0.6433437,"z":-0.157895476},"position":{"x":-0.212469608,"y":1.05892885,"z":0.231471986},"rotation":{"x":-0.2906491,"y":-0.61794,"z":0.7019328,"w":0.202395678}}},"f":128}'
    pinkyJson: '{"stagesInternal":{"161":{"Position":{"x":0.0,"y":0.0,"z":0.0},"Rotation":{"x":0.0,"y":0.0,"z":0.0,"w":0.0},"Forward":{"x":0.0,"y":0.0,"z":1.0},"Up":{"x":0.0,"y":1.0,"z":0.0},"Right":{"x":1.0,"y":0.0,"z":0.0},"position":{"x":0.0,"y":0.0,"z":0.0},"rotation":{"x":0.0,"y":0.0,"z":0.0,"w":0.0}},"162":{"Position":{"x":-0.194732815,"y":1.05377555,"z":0.258544147},"Rotation":{"x":-0.19356,"y":-0.8273761,"z":-0.5093734,"w":-0.13609539},"Forward":{"x":0.4223928,"y":0.790201545,"z":-0.444033444},"Up":{"x":0.181647092,"y":0.406146467,"z":0.895572066},"Right":{"x":-0.888025045,"y":0.4589406,"z":-0.02801551},"position":{"x":-0.194732815,"y":1.05377555,"z":0.258544147},"rotation":{"x":-0.19356,"y":-0.8273761,"z":-0.5093734,"w":-0.13609539}},"164":{"Position":{"x":-0.1832359,"y":1.07528365,"z":0.246458188},"Rotation":{"x":-0.3015164,"y":-0.896487534,"z":0.304267228,"w":0.113223754},"Forward":{"x":-0.3864905,"y":-0.4772659,"z":-0.7892041},"Up":{"x":0.471710831,"y":0.6330186,"z":-0.6138212},"Right":{"x":-0.792536855,"y":0.609512,"z":0.0195242465},"position":{"x":-0.1832359,"y":1.07528365,"z":0.246458188},"rotation":{"x":-0.3015164,"y":-0.896487534,"z":0.304267228,"w":0.113223754}},"168":{"Position":{"x":-0.1901912,"y":1.06669474,"z":0.232255653},"Rotation":{"x":-0.21762988,"y":-0.6266305,"z":0.6917798,"w":0.285328358},"Forward":{"x":-0.6586948,"y":-0.7427887,"z":0.119942926},"Up":{"x":-0.122021735,"y":-0.0518440977,"z":-0.991172552},"Right":{"x":-0.7424501,"y":0.6675158,"z":0.0564869642},"position":{"x":-0.1901912,"y":1.06669474,"z":0.232255653},"rotation":{"x":-0.21762988,"y":-0.6266305,"z":0.6917798,"w":0.285328358}},"176":{"Position":{"x":-0.2032789,"y":1.0523572,"z":0.233529732},"Rotation":{"x":-0.21762988,"y":-0.6266305,"z":0.6917798,"w":0.285328358},"Forward":{"x":-0.6586948,"y":-0.7427887,"z":0.119942926},"Up":{"x":-0.122021735,"y":-0.0518440977,"z":-0.991172552},"Right":{"x":-0.7424501,"y":0.6675158,"z":0.0564869642},"position":{"x":-0.2032789,"y":1.0523572,"z":0.233529732},"rotation":{"x":-0.21762988,"y":-0.6266305,"z":0.6917798,"w":0.285328358}}},"f":160}'
    wristJson: '{"Position":{"x":-0.229120627,"y":1.01019216,"z":0.20569548},"Rotation":{"x":0.110253833,"y":-0.381847948,"z":-0.8695468,"w":-0.293129236},"Forward":{"x":0.0321198553,"y":0.728706539,"z":0.684072435},"Up":{"x":-0.593979537,"y":-0.536534965,"z":0.599432051},"Right":{"x":-0.803838849,"y":0.425578773,"z":-0.41560334},"position":{"x":-0.229120627,"y":1.01019216,"z":0.20569548},"rotation":{"x":0.110253833,"y":-0.381847948,"z":-0.8695468,"w":-0.293129236}}'
    palmJson: '{"Position":{"x":-0.227705061,"y":1.04199862,"z":0.233687773},"Rotation":{"x":0.110253833,"y":-0.381847948,"z":-0.8695468,"w":-0.293129236},"Forward":{"x":0.0321198553,"y":0.728706539,"z":0.684072435},"Up":{"x":-0.593979537,"y":-0.536534965,"z":0.599432051},"Right":{"x":-0.803838849,"y":0.425578773,"z":-0.41560334},"position":{"x":-0.227705061,"y":1.04199862,"z":0.233687773},"rotation":{"x":0.110253833,"y":-0.381847948,"z":-0.8695468,"w":-0.293129236}}'
