%YAML 1.1
%TAG !u! tag:unity3d.com,2011:
--- !u!114 &11400000
MonoBehaviour:
  m_ObjectHideFlags: 0
  m_CorrespondingSourceObject: {fileID: 0}
  m_PrefabInstance: {fileID: 0}
  m_PrefabAsset: {fileID: 0}
  m_GameObject: {fileID: 0}
  m_Enabled: 1
  m_EditorHideFlags: 0
  m_Script: {fileID: 11500000, guid: 514da61389c049c0bdaf31b7f6970d33, type: 3}
  m_Name: QuestMixedRealityControllerVisualizationProfile
  m_EditorClassIdentifier: 
  isCustomProfile: 1
  renderMotionControllers: 1
  defaultControllerVisualizationType:
    reference: Microsoft.MixedReality.Toolkit.Input.MixedRealityControllerVisualizer,
      Microsoft.MixedReality.Toolkit.SDK
  useDefaultModels: 1
  defaultControllerModelMaterial: {fileID: 2100000, guid: 54322026142964d4084eda2478d9b1a2,
    type: 2}
  globalLeftControllerModel: {fileID: 0}
  globalRightControllerModel: {fileID: 0}
  globalLeftHandVisualizer: {fileID: 1227372834072826, guid: 378f91dbbff9e2343b27a467467750bf,
    type: 3}
  globalRightHandVisualizer: {fileID: 1788309537287834, guid: 132c9402d5843aa4f94380840186fd41,
    type: 3}
  controllerVisualizationSettings:
  - description: Windows Mixed Reality Controller
    controllerType:
      reference: Microsoft.MixedReality.Toolkit.WindowsMixedReality.Input.WindowsMixedRealityController,
        Microsoft.MixedReality.Toolkit.Providers.WindowsMixedReality
    handedness: 1
    useDefaultModel: 1
    defaultModelMaterial: {fileID: 0}
    overrideModel: {fileID: 0}
    controllerVisualizationType:
      reference: Microsoft.MixedReality.Toolkit.Input.WindowsMixedRealityControllerVisualizer,
        Microsoft.MixedReality.Toolkit.SDK
  - description: Windows Mixed Reality Controller
    controllerType:
      reference: Microsoft.MixedReality.Toolkit.WindowsMixedReality.Input.WindowsMixedRealityController,
        Microsoft.MixedReality.Toolkit.Providers.WindowsMixedReality
    handedness: 2
    useDefaultModel: 1
    defaultModelMaterial: {fileID: 0}
    overrideModel: {fileID: 0}
    controllerVisualizationType:
      reference: Microsoft.MixedReality.Toolkit.Input.WindowsMixedRealityControllerVisualizer,
        Microsoft.MixedReality.Toolkit.SDK
