%YAML 1.1
%TAG !u! tag:unity3d.com,2011:
--- !u!65 &8268158710374665338
BoxCollider:
  m_ObjectHideFlags: 0
  m_CorrespondingSourceObject: {fileID: 0}
  m_PrefabInstance: {fileID: 0}
  m_PrefabAsset: {fileID: 0}
  m_GameObject: {fileID: 8155953865117227472}
  m_Material: {fileID: 0}
  m_IsTrigger: 0
  m_Enabled: 1
  serializedVersion: 2
  m_Size: {x: 0.10854166, y: 0.020500021, z: 0.2879245}
  m_Center: {x: 0.007206559, y: 0.010238313, z: 0.031236019}
--- !u!1001 &5255454405875028938
PrefabInstance:
  m_ObjectHideFlags: 0
  serializedVersion: 2
  m_Modification:
    m_TransformParent: {fileID: 0}
    m_Modifications:
    - target: {fileID: 3287152305999033352, guid: 3496d674a5db8704b9ce1f1f0884612e,
        type: 3}
      propertyPath: m_LocalPosition.x
      value: 0
      objectReference: {fileID: 0}
    - target: {fileID: 3287152305999033352, guid: 3496d674a5db8704b9ce1f1f0884612e,
        type: 3}
      propertyPath: m_LocalPosition.y
      value: 0
      objectReference: {fileID: 0}
    - target: {fileID: 3287152305999033352, guid: 3496d674a5db8704b9ce1f1f0884612e,
        type: 3}
      propertyPath: m_LocalPosition.z
      value: 0
      objectReference: {fileID: 0}
    - target: {fileID: 3287152305999033352, guid: 3496d674a5db8704b9ce1f1f0884612e,
        type: 3}
      propertyPath: m_LocalRotation.x
      value: -0
      objectReference: {fileID: 0}
    - target: {fileID: 3287152305999033352, guid: 3496d674a5db8704b9ce1f1f0884612e,
        type: 3}
      propertyPath: m_LocalRotation.y
      value: -0
      objectReference: {fileID: 0}
    - target: {fileID: 3287152305999033352, guid: 3496d674a5db8704b9ce1f1f0884612e,
        type: 3}
      propertyPath: m_LocalRotation.z
      value: -0
      objectReference: {fileID: 0}
    - target: {fileID: 3287152305999033352, guid: 3496d674a5db8704b9ce1f1f0884612e,
        type: 3}
      propertyPath: m_LocalRotation.w
      value: 1
      objectReference: {fileID: 0}
    - target: {fileID: 3287152305999033352, guid: 3496d674a5db8704b9ce1f1f0884612e,
        type: 3}
      propertyPath: m_RootOrder
      value: 0
      objectReference: {fileID: 0}
    - target: {fileID: 3287152305999033352, guid: 3496d674a5db8704b9ce1f1f0884612e,
        type: 3}
      propertyPath: m_LocalEulerAnglesHint.x
      value: 0
      objectReference: {fileID: 0}
    - target: {fileID: 3287152305999033352, guid: 3496d674a5db8704b9ce1f1f0884612e,
        type: 3}
      propertyPath: m_LocalEulerAnglesHint.y
      value: 0
      objectReference: {fileID: 0}
    - target: {fileID: 3287152305999033352, guid: 3496d674a5db8704b9ce1f1f0884612e,
        type: 3}
      propertyPath: m_LocalEulerAnglesHint.z
      value: 0
      objectReference: {fileID: 0}
    - target: {fileID: 4147985544767679306, guid: 3496d674a5db8704b9ce1f1f0884612e,
        type: 3}
      propertyPath: m_Name
      value: Pliers
      objectReference: {fileID: 0}
    - target: {fileID: 6323224324847751518, guid: 3496d674a5db8704b9ce1f1f0884612e,
        type: 3}
      propertyPath: itemType
      value: 11
      objectReference: {fileID: 0}
    - target: {fileID: 6323224324847751518, guid: 3496d674a5db8704b9ce1f1f0884612e,
        type: 3}
      propertyPath: clip
      value: 
      objectReference: {fileID: 8300000, guid: 50cf99d1a51ac4845b0eca28be9db3eb, type: 3}
    m_RemovedComponents: []
  m_SourcePrefab: {fileID: 100100000, guid: 3496d674a5db8704b9ce1f1f0884612e, type: 3}
--- !u!4 &7309712091544086466 stripped
Transform:
  m_CorrespondingSourceObject: {fileID: 3287152305999033352, guid: 3496d674a5db8704b9ce1f1f0884612e,
    type: 3}
  m_PrefabInstance: {fileID: 5255454405875028938}
  m_PrefabAsset: {fileID: 0}
--- !u!1001 &9074380539989091457
PrefabInstance:
  m_ObjectHideFlags: 0
  serializedVersion: 2
  m_Modification:
    m_TransformParent: {fileID: 7309712091544086466}
    m_Modifications:
    - target: {fileID: -8679921383154817045, guid: 40b2bd4e2d88719439c9421eed01d4ed,
        type: 3}
      propertyPath: m_LocalPosition.x
      value: -0
      objectReference: {fileID: 0}
    - target: {fileID: -8679921383154817045, guid: 40b2bd4e2d88719439c9421eed01d4ed,
        type: 3}
      propertyPath: m_LocalPosition.y
      value: 0
      objectReference: {fileID: 0}
    - target: {fileID: -8679921383154817045, guid: 40b2bd4e2d88719439c9421eed01d4ed,
        type: 3}
      propertyPath: m_LocalPosition.z
      value: 0
      objectReference: {fileID: 0}
    - target: {fileID: -8679921383154817045, guid: 40b2bd4e2d88719439c9421eed01d4ed,
        type: 3}
      propertyPath: m_LocalRotation.x
      value: 0
      objectReference: {fileID: 0}
    - target: {fileID: -8679921383154817045, guid: 40b2bd4e2d88719439c9421eed01d4ed,
        type: 3}
      propertyPath: m_LocalRotation.y
      value: -0
      objectReference: {fileID: 0}
    - target: {fileID: -8679921383154817045, guid: 40b2bd4e2d88719439c9421eed01d4ed,
        type: 3}
      propertyPath: m_LocalRotation.z
      value: -0
      objectReference: {fileID: 0}
    - target: {fileID: -8679921383154817045, guid: 40b2bd4e2d88719439c9421eed01d4ed,
        type: 3}
      propertyPath: m_LocalRotation.w
      value: 1
      objectReference: {fileID: 0}
    - target: {fileID: -8679921383154817045, guid: 40b2bd4e2d88719439c9421eed01d4ed,
        type: 3}
      propertyPath: m_RootOrder
      value: 0
      objectReference: {fileID: 0}
    - target: {fileID: -8679921383154817045, guid: 40b2bd4e2d88719439c9421eed01d4ed,
        type: 3}
      propertyPath: m_LocalEulerAnglesHint.x
      value: 0
      objectReference: {fileID: 0}
    - target: {fileID: -8679921383154817045, guid: 40b2bd4e2d88719439c9421eed01d4ed,
        type: 3}
      propertyPath: m_LocalEulerAnglesHint.y
      value: 0
      objectReference: {fileID: 0}
    - target: {fileID: -8679921383154817045, guid: 40b2bd4e2d88719439c9421eed01d4ed,
        type: 3}
      propertyPath: m_LocalEulerAnglesHint.z
      value: 0
      objectReference: {fileID: 0}
    - target: {fileID: 919132149155446097, guid: 40b2bd4e2d88719439c9421eed01d4ed,
        type: 3}
      propertyPath: m_Name
      value: pliers
      objectReference: {fileID: 0}
    m_RemovedComponents: []
  m_SourcePrefab: {fileID: 100100000, guid: 40b2bd4e2d88719439c9421eed01d4ed, type: 3}
--- !u!1 &8155953865117227472 stripped
GameObject:
  m_CorrespondingSourceObject: {fileID: 919132149155446097, guid: 40b2bd4e2d88719439c9421eed01d4ed,
    type: 3}
  m_PrefabInstance: {fileID: 9074380539989091457}
  m_PrefabAsset: {fileID: 0}
